118.195.65.243;80;11;0
118.195.65.250;80;10;0
118.195.65.245;80;10;0
125.39.66.154;80;10;0
125.39.68.131;80;6;0
125.39.66.149;80;12;0
202.171.253.103;85;13;0
125.39.66.148;80;6;0
122.72.76.121;80;7;0
120.203.215.2;80;9;0
124.165.212.3;9000;2;0
36.32.20.206;8080;2;0
218.29.218.10;8888;2;0
58.250.87.122;81;2;0
122.72.124.72;80;2;0
119.187.148.102;8000;2;0
122.72.0.6;80;2;0
221.0.90.54;8080;2;0
221.130.23.29;80;2;0
221.2.228.202;8000;2;0
122.96.59.103;80;2;0
218.204.39.166;80;2;0
218.203.105.24;80;2;0
58.22.151.184;80;2;0
222.169.60.5;80;2;0
218.188.13.237;8888;2;0
1.63.18.22;8080;6;0
120.203.215.4;80;2;0
221.7.132.41;8080;2;0
218.29.218.10;6666;2;0
123.235.12.118;8080;2;0
67.215.228.129;7808;2;0
222.218.152.92;8888;2;0
208.113.101.57;80;2;0
125.39.66.150;80;2;0
58.240.98.179;80;2;0
125.39.238.242;8080;2;0
220.248.237.234;8080;2;0
124.240.187.79;82;2;0
222.73.242.137;81;11;0
221.10.102.203;80;2;0
202.173.214.158;8080;2;0
221.130.162.242;8080;2;0
221.130.18.189;80;2;0
110.4.12.170;83;2;0
210.101.131.231;8080;2;0
221.10.40.236;80;2;0
211.151.187.88;80;2;0
123.157.208.8;9090;2;0
122.72.0.28;80;2;0
95.181.40.202;8000;2;0
122.72.76.125;80;2;0
202.134.160.208;80;2;0
46.211.224.76;8080;2;0
60.253.116.66;8080;2;0
217.169.219.145;6666;2;0
109.111.160.112;8080;2;0
125.39.25.202;8096;2;0
61.150.43.124;8080;2;0
85.135.52.30;8080;2;0
221.176.169.14;8001;2;0
202.152.156.212;8080;2;0
221.130.17.48;80;2;0
1.229.22.104;8080;2;0
121.52.144.245;8080;2;0
119.184.214.18;808;7;0
218.56.175.234;9000;2;0
222.124.130.202;8080;2;0
139.0.0.178;8080;2;0
36.32.18.62;8080;2;0
61.53.64.37;8080;2;0
58.250.87.121;81;2;0
124.207.82.166;8018;2;0
221.130.23.4;80;2;0
58.23.3.190;810;2;0
192.110.163.22;7808;6;0
213.207.41.250;8080;2;0
221.7.213.216;8080;2;0
116.28.65.249;80;2;0
208.110.83.202;7808;2;0
221.130.18.93;80;2;0
85.185.42.5;8080;2;0
222.74.98.234;8080;2;0
221.10.40.232;81;2;0
74.221.211.12;7808;2;0
31.133.7.10;8080;2;0
110.4.12.170;81;2;0
117.135.163.134;8888;2;0
202.78.197.194;8080;2;0
58.20.61.88;9090;2;0
186.101.35.3;8080;2;0
116.90.208.47;80;2;0
190.121.135.30;8080;2;0
173.213.113.111;7808;2;0
58.252.56.149;9000;2;0
221.130.18.51;80;2;0
121.52.144.245;80;2;0
122.72.76.122;80;2;0
221.181.192.27;80;2;0
114.141.162.53;8080;2;0
218.249.86.131;553;2;0
222.124.130.203;8080;2;0
116.228.55.184;80;2;0
197.220.193.25;8080;2;0
211.142.236.133;8080;2;0
122.72.120.63;80;2;0
218.206.204.254;80;2;0
118.213.148.178;80;2;0
87.236.232.231;8080;2;0
80.80.173.86;8080;2;0
221.10.102.203;81;2;0
109.111.236.206;6666;2;0
192.227.139.106;7808;8;0
78.137.5.26;8080;2;0
221.181.192.26;80;2;0
199.30.136.116;7808;2;0
218.204.39.165;80;2;0
61.145.116.252;8080;2;0
222.124.3.81;8080;2;0
217.13.118.93;80;2;0
187.65.80.197;8080;2;0
124.237.92.2;8080;2;0
201.75.116.30;8080;2;0
218.204.39.164;80;2;0
213.0.88.86;8080;2;0
91.205.52.253;8080;2;0
95.107.161.138;80;2;0
125.214.163.2;8080;2;0
94.200.77.244;8080;2;0
91.206.55.2;80;2;0
200.150.71.82;8080;2;0
116.228.55.217;80;2;0
190.228.46.77;8080;2;0
85.185.42.6;8080;2;0
190.96.64.234;8080;2;0
182.72.79.82;8080;2;0
197.136.38.2;8080;2;0
46.249.66.50;8080;2;0
200.199.145.162;8080;2;0
95.140.118.193;6666;2;0
202.143.146.199;8080;2;0
77.48.30.205;8080;2;0
193.68.120.65;8080;2;0
202.88.225.150;80;2;0
84.22.2.55;8080;2;0
59.108.47.58;808;7;0
78.41.21.46;8080;2;0
187.185.71.90;8080;2;0
95.77.97.146;8080;2;0
118.195.65.249;80;1;0
202.171.253.103;84;1;0
218.204.39.167;80;1;0
202.171.253.98;80;1;0
202.171.253.103;81;1;0
202.171.253.111;80;1;0
202.108.251.214;8888;1;0
211.167.64.112;8080;1;0
211.151.186.228;80;1;0
210.14.143.53;7020;1;0
202.99.172.145;8081;1;0
119.167.231.72;8080;1;0
210.14.143.53;7000;1;0
119.167.231.73;8080;1;0
211.142.236.133;80;1;0
219.154.46.138;8080;1;0
218.29.111.178;8888;1;0
211.142.236.132;81;1;0
218.28.112.114;809;1;0
115.182.10.144;80;1;0
218.29.154.54;8000;1;0
202.110.74.245;9000;1;0
218.29.111.178;6666;1;0
220.181.151.22;80;1;0
116.112.66.102;808;1;0
119.186.160.86;8000;1;0
218.91.206.146;8001;1;0
120.203.215.12;80;1;0
114.80.136.112;7780;1;0
221.10.40.232;80;1;0
120.203.214.162;80;1;0
221.10.40.232;82;1;0
210.14.143.53;7620;1;0
115.238.129.158;8089;1;0
203.93.28.166;8080;1;0
211.142.236.137;8080;1;0
211.142.236.137;80;1;0
61.183.0.91;7938;1;0
115.239.249.2;80;1;0
218.206.204.254;443;1;0
221.10.102.203;84;1;0
112.5.254.172;80;1;0
111.13.87.150;80;1;0
183.237.184.69;8080;1;0
120.203.214.176;80;1;0
219.150.204.30;80;1;0
124.95.162.210;80;1;0
211.138.219.98;80;1;0
218.201.21.176;80;1;0
60.214.67.86;8080;1;0
110.4.12.170;80;1;0
183.221.250.141;80;1;0
110.4.12.170;82;1;0
119.187.148.81;9000;1;0
119.177.15.74;80;1;0
211.151.115.16;2020;1;0
123.131.87.184;60000;1;0
119.177.15.75;80;1;0
120.194.100.38;8001;1;0
221.10.40.236;81;1;0
103.247.16.241;8080;1;0
221.10.102.203;83;1;0
49.212.212.203;80;1;0
122.96.59.103;82;1;0
118.123.242.112;80;1;0
118.123.242.103;80;1;0
221.130.18.92;80;1;0
120.203.215.13;80;1;0
219.159.105.180;8080;1;0
221.130.17.61;80;1;0
183.234.77.201;8080;1;0
120.203.215.2;9090;1;0
211.66.184.99;9080;1;0
124.225.52.14;8080;1;0
95.167.218.226;8080;1;0
67.215.228.129;8089;1;0
60.2.156.6;80;1;0
221.130.17.37;80;1;0
120.203.214.177;80;1;0
61.55.141.10;81;1;0
118.97.95.174;80;1;0
118.97.95.174;8080;1;0
221.10.102.203;82;1;0
221.130.17.60;80;1;0
211.167.112.14;82;1;0
54.251.150.255;80;1;0
222.73.233.146;83;1;0
211.138.151.117;80;1;0
211.167.112.14;80;1;0
202.202.96.84;8086;1;0
124.240.187.79;81;1;0
61.153.98.6;8080;1;0
116.228.55.217;8000;1;0
122.72.76.126;80;1;0
124.240.187.79;80;1;0
221.181.192.91;80;1;0
61.164.46.26;52013;1;0
182.48.191.83;8000;1;0
110.74.218.147;8080;1;0
125.39.66.131;80;1;0
112.217.228.212;8080;1;0
192.95.14.4;8089;1;0
61.145.116.252;80;1;0
173.193.200.199;7808;1;0
173.193.200.199;8089;1;0
200.218.186.180;8080;1;0
221.130.18.79;80;1;0
77.94.48.5;80;1;0
199.30.136.116;8089;1;0
125.62.19.14;80;1;0
61.55.141.11;81;1;0
190.0.9.202;8080;1;0
202.98.123.126;8080;1;0
190.0.16.58;8080;1;0
60.194.100.46;80;1;0
222.73.233.146;80;1;0
118.97.188.146;8080;1;0
61.134.38.42;7250;1;0
113.107.43.75;818;1;0
195.69.191.78;80;1;0
77.94.48.4;80;1;0
122.225.22.22;8080;1;0
222.89.224.142;8080;1;0
195.182.22.84;8080;1;0
189.113.64.126;8080;1;0
123.54.71.34;8001;1;0
204.84.216.200;8080;1;0
82.200.254.154;9090;1;0
84.232.51.132;8080;1;0
190.92.87.145;8080;1;0
202.150.130.75;8080;1;0
200.149.232.32;8080;1;0
195.69.191.79;80;1;0
91.206.54.2;80;1;0
91.212.124.153;80;1;0
84.21.18.12;80;1;0
190.14.255.234;8000;1;0
188.255.166.33;6666;1;0
221.226.93.114;60023;1;0
195.69.191.76;80;1;0
190.0.46.66;8080;1;0
217.169.222.18;6666;1;0
187.85.84.65;8080;1;0
122.72.0.216;80;1;0
204.84.216.200;3129;1;0
222.169.193.34;3129;1;0
116.236.216.116;8080;1;0
193.105.67.32;8080;1;0
188.255.151.193;6666;1;0
221.130.23.6;80;1;0
187.87.195.131;8080;1;0
54.251.150.200;80;1;0
58.250.87.123;81;1;0
61.155.159.9;8989;1;0
54.251.150.254;80;1;0
212.175.88.3;8080;1;0
125.253.101.84;8080;1;0
59.46.67.108;8080;1;0
93.93.198.34;6666;1;0
206.251.61.230;8080;1;0
61.136.93.38;8080;1;0
222.169.11.34;8080;1;0
91.219.238.77;7808;1;0
36.32.18.113;8080;1;0
186.103.130.91;8080;1;0
91.224.126.82;8080;1;0
221.130.18.78;80;1;0
190.105.178.164;80;1;0
54.251.150.193;80;1;0
193.68.120.1;8080;1;0
58.250.87.168;81;1;0
210.101.131.232;8080;1;0
93.87.17.73;8080;1;0
201.218.130.42;8080;1;0
193.68.1.4;8080;1;0
88.85.106.146;8080;1;0
62.201.207.14;8080;1;0
190.5.227.37;8089;1;0
78.96.65.33;8080;1;0
197.220.193.49;8080;1;0
125.91.4.146;3328;1;0
50.57.171.227;80;1;0
125.39.25.202;8088;1;0
61.153.236.30;8080;1;0
88.85.98.82;8080;1;0
93.91.55.89;8080;1;0
37.77.51.162;80;1;0
221.130.17.62;80;1;0
125.39.68.197;80;1;0
186.226.98.253;8080;1;0
221.130.18.252;80;1;0
95.167.218.229;8080;1;0
190.85.133.162;8080;1;0
190.151.122.38;80;1;0
86.111.144.194;20000;1;0
221.130.162.242;82;1;0
60.223.255.141;8080;1;0
124.240.187.81;80;1;0
58.250.87.125;81;1;0
210.51.3.42;8080;1;0
180.250.208.12;8080;1;0
110.232.94.44;8087;1;0
1.192.224.66;6666;1;0
193.105.67.42;8080;1;0
202.131.85.42;8080;1;0
124.240.187.81;81;1;0
221.130.23.5;80;1;0
41.84.141.186;8080;1;0
87.236.232.231;80;1;0
79.123.134.21;8080;1;0
61.133.125.186;50634;1;0
222.73.242.137;83;1;0
202.77.125.152;8080;1;0
80.80.173.84;8080;1;0
24.143.198.188;80;1;0
65.126.16.155;7808;1;0
117.211.123.60;80;1;0
95.87.239.115;8080;1;0
202.8.157.116;8081;1;0
190.128.194.2;80;1;0
200.42.56.146;8080;1;0
122.156.42.16;308;1;0
82.200.254.26;9090;1;0
216.230.230.57;7808;1;0
221.130.18.91;80;1;0
91.237.34.34;8080;1;0
180.250.165.205;8080;1;0
110.138.103.154;8080;1;0
202.171.12.120;8080;1;0
210.36.81.77;3389;1;0
190.121.135.178;8080;1;0
180.250.196.74;8080;1;0
64.213.148.50;8080;1;0
118.96.7.200;8080;1;0
192.30.86.198;443;1;0
197.220.163.75;8080;1;0
219.223.252.150;56142;1;0
190.122.185.205;8080;1;0
201.80.120.199;8080;1;0
190.0.14.186;8080;1;0
46.183.122.85;80;1;0
109.236.220.98;8080;1;0
83.236.131.185;8080;1;0
202.205.91.113;54321;1;0
88.85.103.0;8080;1;0
193.105.67.34;8080;1;0
221.130.18.188;80;1;0
125.253.101.37;8080;1;0
213.141.236.133;8080;1;0
82.99.250.36;8080;1;0
196.3.181.162;80;1;0
190.249.177.59;8080;1;0
221.130.18.77;80;1;0
186.47.18.202;8080;1;0
92.42.255.174;6666;1;0
84.40.111.206;8080;1;0
221.193.237.73;8080;1;0
196.200.24.130;8081;1;0
200.109.228.67;8080;1;0
180.250.73.10;8080;1;0
82.207.68.142;8080;1;0
201.150.2.169;8080;1;0
189.6.93.74;8080;1;0
82.208.5.175;8080;1;0
95.140.118.237;6666;1;0
41.215.254.76;80;1;0
180.247.19.183;8080;1;0
119.252.160.34;8080;1;0
123.129.214.155;80;1;0
109.224.62.197;80;1;0
41.93.45.20;80;1;0
31.131.30.161;7808;1;0
124.81.113.183;8080;1;0
82.114.92.33;8080;1;0
124.240.187.81;82;1;0
109.230.63.219;80;1;0
118.97.174.218;8080;1;0
200.196.51.130;8080;1;0
213.171.68.125;8080;1;0
200.85.39.10;8080;1;0
103.247.16.6;8080;1;0
119.252.172.131;80;1;0
202.182.49.41;8080;1;0
118.97.191.205;8080;1;0
190.189.114.41;8080;1;0
110.153.9.250;80;1;0
180.250.144.237;8080;1;0
200.5.113.202;8080;1;0
190.206.212.117;8080;1;0
190.92.87.18;8080;1;0
78.9.164.162;8080;1;0
180.250.129.184;8080;1;0
190.151.122.38;8080;1;0
85.207.17.146;8080;1;0
193.68.0.145;8080;1;0
190.207.134.161;8080;1;0
61.166.55.153;11808;1;0
200.195.176.77;8080;1;0
200.138.149.67;8118;1;0
200.93.49.18;8080;1;0
